ego.ergm
…
class(mesa.ego)

## [1] "egor" "list"

class(mesa.ego$ego)

## [1] "tbl_df"     "tbl"        "data.frame"

print(mesa.ego$ego)

## # A tibble: 205 × 4
##    .egoID Grade Race  Sex  
##     <int> <dbl> <chr> <chr>
##  1      1     7 Hisp  F    
##  2      2     7 Hisp  F    
##  3      3    11 NatAm M    
##  4      4     8 Hisp  M    
##  5      5    10 White F    
##  6      6    10 Hisp  F    
##  7      7     8 NatAm M    
##  8      8    11 NatAm M    
##  9      9     9 White M    
## 10     10     9 NatAm F    
## # ℹ 195 more rows
…
